…
4109086

> Q. What countries in data set had population smaller than Ireland in
> 2007?

-First limit/subset the dataset to the year 2007

``` r
gap07 <- filter(gapminder, year == 2007)
gap07
```

    # A tibble: 142 × 6
       country     continent  year lifeExp       pop gdpPercap
       <fct>       <fct>     <int>   <dbl>     <int>     <dbl>
     1 Afghanistan Asia       2007    43.8  31889923      975.
     2 Albania     Europe     2007    76.4   3600523     5937.
     3 Algeria     Africa     2007    72.3  33333216     6223.
     4 Angola      Africa     2007    42.7  12420476     4797.
     5 Argentina   Americas   2007    75.3  40301927    12779.
     6 Australia   Oceania    2007    81.2  20434176    34435.
     7 Austria     Europe     2007    79.8   8199783    36126.
     8 Bahrain     Asia       2007    75.6    708573    29796.
     9 Bangladesh  Asia       2007    64.1 150448339     1391.
    10 Belgium     Europe     2007    79.4  10392226    33693.
    # ℹ 132 more rows
…
    # A tibble: 1 × 1
          pop
        <int>
    1 4109086

-Then extract all rows with `pop` less than Ireland

``` r
filter(gap07, pop < 4109086)
```

    # A tibble: 31 × 6
       country           continent  year lifeExp     pop gdpPercap
       <fct>             <fct>     <int>   <dbl>   <int>     <dbl>
     1 Albania           Europe     2007    76.4 3600523     5937.
     2 Bahrain           Asia       2007    75.6  708573    29796.
     3 Botswana          Africa     2007    50.7 1639131    12570.
     4 Comoros           Africa     2007    65.2  710960      986.
     5 Congo, Rep.       Africa     2007    55.3 3800610     3633.
     6 Djibouti          Africa     2007    54.8  496374     2082.
     7 Equatorial Guinea Africa     2007    51.6  551201    12154.
     8 Gabon             Africa     2007    56.7 1454867    13206.
     9 Gambia            Africa     2007    59.4 1688359      753.
    10 Guinea-Bissau     Africa     2007    46.4 1472041      579.
    # ℹ 21 more rows
